37	23
145	3
103	9
271	6
888	342
300	155
429	30
255	40
74	6
49	35
547	45
576	50
238	23
883	0
583	262
461	214
506	45
319	147
330	173
751	35
889	0
878	208
847	270
492	6
493	3
755	3
233	6
677	50
83	52
605	162
762	269
631	8
653	37
124	74
698	282
852	335
218	23
692	115
630	30
738	30
44	32
410	30
88	54
230	86
445	25
725	77
313	163
324	169
549	248
484	37
618	266
288	38
701	77
13	11
408	187
438	25
122	59
499	3
726	79
855	23
798	25
430	38
321	167
460	213
59	16
112	3
872	30
505	37
767	303
276	4
804	114
181	40
718	290
648	50
167	96
376	186
57	39
876	25
146	35
439	204
666	3
323	147
296	153
818	321
437	79
43	31
432	45
731	79
468	45
511	233
706	30
522	27
659	104
590	50
183	101
36	27
367	45
338	175
597	263
402	38
503	230
278	146
343	177
494	0
106	62
776	306
812	316
567	258
118	25
641	50
318	27
824	115
305	49
705	285
67	45
501	27
787	310
562	50
679	40
161	59
816	29
119	0
5	5
315	147
372	185
714	289
710	0
464	35
469	217
721	291
52	36
356	38
184	102
709	288
744	86
764	302
17	6
474	219
766	247
694	3
750	297
341	147
97	58
712	22
534	245
12	3
654	50
240	45
314	164
456	40
84	25
114	69
715	6
826	325
211	115
272	127
596	50
727	293
102	3
819	67
196	107
890	6
250	133
227	38
502	3
442	16
54	30
417	25
656	50
166	95
360	82
752	45
797	106
808	25
535	45
164	93
658	38
487	29
463	215
475	220
459	89
817	320
610	50
621	247
514	234
585	50
56	38
579	50
111	67
786	29
478	106
454	81
730	77
528	242
885	0
695	280
879	3
265	142
477	221
120	45
389	59
209	114
407	195
772	30
572	50
365	59
349	178
418	25
205	35
739	294
446	72
131	79
871	45
142	45
273	79
79	51
614	25
858	92
239	127
707	286
702	283
395	25
246	130
451	0
490	229
602	265
526	240
471	178
169	97
153	88
99	59
604	162
377	187
470	25
874	29
765	188
598	30
353	180
303	38
154	49
115	70
382	79
123	73
801	115
455	211
775	6
295	30
745	106
862	23
394	192
660	50
733	8
411	0
409	196
344	22
253	136
199	3
841	172
577	260
104	3
61	41
331	147
509	224
619	267
476	45
580	37
20	15
866	25
530	244
550	249
129	78
849	38
397	59
141	6
835	172
453	210
670	50
483	225
130	77
346	124
185	6
649	50
40	9
414	162
635	50
132	80
191	105
448	207
70	9
789	79
636	162
14	12
711	37
23	18
257	138
254	0
292	151
813	317
197	59
290	45
173	45
359	9
555	251
198	108
220	120
38	28
287	115
856	337
769	3
71	26
189	104
757	299
556	252
10	6
89	37
611	28
126	25
643	272
381	25
329	172
357	6
249	23
207	113
864	338
226	38
284	4
761	301
68	46
799	3
539	37
179	99
306	45
98	30
827	5
80	3
785	30
582	50
334	30
415	6
655	243
563	15
263	141
500	3
39	29
869	38
339	174
291	150
48	29
678	162
225	122
350	45
651	50
247	131
81	50
669	27
533	0
848	3
15	13
449	208
204	30
851	35
777	23
644	273
873	340
26	21
422	193
632	50
144	85
836	332
496	30
793	3
829	326
35	26
498	6
520	236
304	158
683	264
60	40
366	34
571	37
41	30
69	47
279	147
519	27
65	44
427	203
753	235
831	328
244	129
168	6
311	161
756	298
717	77
24	19
569	30
814	318
740	77
147	6
375	30
293	152
86	23
241	38
524	239
857	38
383	188
589	248
277	145
18	14
783	25
639	271
768	304
613	62
105	61
480	222
557	253
642	162
685	50
467	104
592	30
419	199
700	35
482	224
839	172
578	261
686	37
515	3
664	50
242	128
646	50
94	56
742	30
229	38
3	3
413	197
774	27
245	45
541	246
378	6
667	50
384	79
108	64
336	147
72	48
219	32
722	292
364	182
133	81
286	9
77	6
75	46
440	0
728	77
248	132
9	9
680	50
379	77
148	86
815	319
672	277
62	42
716	45
268	38
689	162
297	86
853	336
151	29
11	10
280	90
481	223
1	1
143	84
42	0
622	25
713	30
794	45
158	90
165	94
137	3
222	23
231	124
51	29
285	149
688	278
87	6
127	76
208	3
806	314
163	92
188	45
792	312
182	100
844	6
386	29
267	90
281	148
821	323
465	216
486	227
58	6
587	147
223	35
93	3
175	38
347	0
251	134
822	324
260	29
564	255
735	8
95	57
674	114
573	162
781	169
337	162
805	289
436	6
258	45
261	139
886	341
545	29
699	29
441	79
850	72
121	3
661	27
78	38
361	38
275	89
510	232
443	45
734	77
50	18
157	63
21	16
796	77
431	181
566	257
843	12
150	59
800	25
778	307
458	35
749	29
310	147
842	334
256	137
270	35
754	25
139	29
180	6
623	50
615	27
426	86
25	20
362	123
675	50
160	35
760	162
110	66
450	209
91	55
607	50
96	25
195	25
668	45
274	144
224	38
370	77
625	37
351	179
548	97
690	279
696	281
544	247
599	37
662	3
282	35
16	0
55	6
309	160
345	45
428	179
392	58
861	25
186	79
663	50
178	67
489	6
780	309
466	6
327	171
412	23
882	35
374	63
681	162
252	135
136	6
259	30
116	71
708	287
747	29
63	43
542	72
865	339
790	311
109	65
624	268
784	50
269	23
31	25
187	103
194	106
743	77
203	111
299	154
770	305
302	157
355	30
125	75
884	6
594	45
243	114
574	187
162	91
570	259
791	30
234	126
536	0
773	37
637	15
497	0
517	235
736	77
236	23
192	0
523	238
616	264
128	77
748	25
840	333
421	35
457	212
312	162
34	25
416	198
652	276
117	72
425	202
595	247
28	23
531	6
45	33
560	50
803	25
342	176
561	162
551	50
6	6
373	77
444	205
387	25
369	184
634	270
307	89
316	165
171	3
320	166
400	25
326	170
8	8
170	25
215	117
434	123
283	9
513	25
612	50
232	125
512	9
846	22
325	147
488	228
629	269
682	255
802	3
193	38
887	6
237	28
380	45
335	147
4	4
603	50
495	6
828	67
811	315
214	52
880	35
76	50
554	250
565	256
645	274
546	6
771	3
322	168
29	22
228	123
403	38
527	241
741	295
435	0
152	25
737	77
875	123
837	333
665	3
363	45
396	3
691	50
206	112
759	3
2	2
617	50
399	35
516	38
401	38
877	6
266	143
82	50
405	193
235	6
423	200
854	38
593	29
354	181
553	27
543	27
810	247
317	147
7	7
830	327
833	330
352	86
340	170
424	201
177	98
213	29
538	27
406	194
723	77
867	27
719	29
221	121
568	97
693	45
703	77
600	50
559	254
795	313
537	46
264	35
333	25
552	30
90	40
479	178
217	119
729	30
107	63
301	156
308	159
190	79
452	0
100	60
391	191
398	29
588	50
809	40
140	28
606	8
174	6
53	37
201	110
584	40
66	45
518	6
447	206
393	25
823	25
22	17
529	243
508	231
298	6
176	29
575	50
30	24
825	9
388	29
92	37
348	79
860	104
586	27
212	116
788	0
262	140
532	45
540	72
807	25
627	50
720	25
101	25
328	147
758	300
676	162
472	218
863	6
763	3
868	29
485	226
620	50
462	1
732	77
870	29
473	104
650	162
608	115
216	118
404	25
33	6
32	3
46	3
0	0
332	174
657	50
64	23
491	6
881	0
591	50
640	37
626	86
200	109
159	3
521	237
779	308
73	49
684	50
385	189
19	6
420	77
601	264
371	77
638	243
210	89
47	34
172	38
202	0
85	53
504	28
156	89
390	190
558	162
113	68
724	25
845	269
820	322
782	45
746	296
609	38
628	50
832	329
294	6
647	275
834	331
135	82
687	50
633	162
358	6
368	183
525	187
149	87
859	25
581	50
704	284
289	45
134	77
138	83
507	97
671	3
155	6
433	79
838	35
697	6
27	22
673	37
