1546	174
1695	340
1356	0
1297	393
1056	370
1355	110
1619	328
1032	0
1197	285
1719	131
1182	275
1384	0
1699	341
1528	164
1067	0
1382	0
1566	186
1463	22
1326	0
1004	227
1380	303
1369	0
1508	0
1185	0
1357	111
1511	0
1692	0
1404	0
1207	290
1025	0
1455	0
1005	228
1163	0
1745	0
1285	0
1475	345
1116	266
1316	0
1601	0
1471	342
1276	381
1290	0
1638	77
1612	0
1262	0
1470	81
1050	369
1088	57
1556	29
1072	248
1361	0
1675	0
1054	2
1211	0
1315	0
1023	359
1465	0
1731	135
1557	181
1685	0
1676	0
1101	59
1022	84
1611	325
1147	0
1615	0
1634	0
1552	177
1539	0
1663	0
1245	0
1489	0
1304	397
1385	68
1334	101
1739	138
1542	171
1410	317
1583	0
1425	14
1170	0
1177	0
1135	243
1307	0
1426	144
1026	0
1318	403
1107	0
1464	11
1236	212
1123	236
1008	0
1128	239
1339	0
1603	323
1445	153
1544	172
1457	21
1703	120
1749	0
1553	178
1040	0
1165	6
1554	179
1016	0
1600	0
1561	0
1317	0
1119	0
1605	70
1178	271
1711	125
1643	0
1229	0
1155	245
1195	283
1218	294
1224	0
1499	0
1333	100
1051	87
1167	0
1300	395
1416	321
1034	0
1607	0
1044	86
1217	0
1714	128
1129	0
1220	36
1362	114
1722	132
1343	0
1653	335
1547	0
1012	0
1231	0
1682	0
1124	0
1742	12
1292	392
1079	0
1281	385
1472	0
1424	143
1736	0
1378	301
1192	281
1671	0
1496	352
1162	0
1154	0
1171	0
1580	32
1071	247
1212	66
1323	1
1196	284
1504	0
1235	39
1210	0
1377	300
1191	0
1291	0
1488	351
1399	71
1400	72
1454	0
1637	0
1168	0
1627	0
1115	58
1365	115
1604	0
1652	0
1202	287
1493	0
1733	0
1456	155
1523	160
1268	47
1345	4
1055	88
1744	139
1080	0
1146	53
1502	0
1093	257
1187	0
1725	8
1578	31
1713	127
1109	263
1074	250
1666	0
1390	70
1440	0
1371	0
1527	163
1618	56
1064	0
1073	249
1727	10
1346	5
1387	69
1349	109
1746	0
1701	118
1660	0
1656	0
1131	0
1597	0
1586	198
1173	268
1705	4
1516	0
1247	0
1209	65
1065	373
1645	78
1052	0
1179	272
1296	0
1117	267
1621	329
1449	0
1670	0
1677	0
1332	99
1186	277
1568	187
1409	316
1076	56
1251	41
1532	27
1114	0
1664	0
1313	0
1669	0
1325	96
1269	0
1648	0
1227	0
1477	82
1473	343
1513	0
1478	347
1458	0
1337	0
1709	124
1518	356
1413	0
1068	374
1555	180
1593	34
1388	305
1301	0
1338	3
1306	399
1529	165
1180	273
1596	35
1644	56
1702	119
1690	0
1158	246
1585	197
1153	244
1724	0
1344	106
1230	209
1498	0
1020	0
1092	256
1437	151
1732	0
1476	346
1522	0
1112	264
1389	306
1735	136
1629	0
1461	0
1631	0
1053	0
1253	42
1717	130
1039	0
1662	0
1241	215
1479	83
1047	367
1336	103
1630	332
1359	0
1145	0
1105	60
1149	0
1193	282
1579	193
1486	349
1311	401
1200	0
1500	0
1018	234
1003	0
1265	0
1647	0
1303	396
1037	0
1395	310
1396	311
1651	0
1309	0
1100	58
1176	270
1139	11
1308	400
1062	0
1184	61
1710	0
1001	0
1031	0
1636	334
1551	0
1494	0
1379	302
1164	0
1606	0
1373	296
1436	17
1706	122
1649	0
1219	0
1418	0
1482	0
1668	0
1279	384
1060	0
1248	40
1412	318
1633	333
1526	162
1305	398
1148	0
1609	324
1287	390
1090	255
1697	0
1143	0
1061	0
1169	0
1446	0
1368	6
1278	383
1242	216
1509	0
1352	0
1743	0
1505	0
1282	386
1574	0
1626	0
1694	0
1726	9
1261	0
1381	0
1208	291
1443	19
1097	0
1264	46
1045	366
1133	241
1707	0
1608	0
1203	288
1138	0
1411	0
1700	117
1641	0
1049	368
1439	152
1483	0
1665	337
1216	0
1657	0
1467	157
1255	220
1295	0
1226	0
1310	0
1144	0
1081	0
1174	269
1401	0
1083	0
1066	0
1223	207
1057	89
1010	231
1558	182
1563	0
1239	214
1581	194
1151	0
1632	0
1024	85
1087	254
1077	0
1320	0
1678	339
1111	0
1314	0
1590	201
1096	0
1354	0
1294	92
1042	364
1639	0
1497	0
1341	105
1510	0
1232	210
1204	289
1194	0
1573	192
1228	208
1274	379
1120	0
1397	312
1038	0
1515	354
1383	304
1013	49
1415	320
1617	327
1403	0
1534	0
1466	23
1712	126
1688	0
1299	0
1126	0
1366	0
1234	211
1569	188
1029	0
1043	365
1103	56
1215	67
1249	0
1246	0
1069	375
1538	168
1132	0
1272	377
1613	0
1693	0
1258	0
1127	238
1721	7
1348	108
1085	253
1136	0
1485	0
1351	0
1734	0
1704	121
1183	276
1017	233
1222	37
1460	0
1108	262
1438	18
1462	0
1720	0
1434	16
1293	0
1674	0
1620	76
1394	309
1610	74
1459	156
1392	308
1716	0
1715	129
1595	204
1549	176
1266	223
1386	0
1159	0
1420	140
1507	353
1451	0
1599	0
1428	146
1614	75
1683	0
1113	265
1623	0
1198	286
1747	0
1089	0
1063	372
1642	0
1506	0
1533	167
1587	199
1602	322
1616	326
1550	28
1104	261
1134	242
1543	0
1427	145
1273	378
1729	133
1106	0
1655	0
1442	0
1019	50
1572	191
1501	0
1252	219
1689	0
1503	0
1640	0
1340	104
1190	280
1433	0
1181	274
1491	0
1730	134
1530	26
1121	0
1559	0
1347	107
1243	217
1002	226
1041	363
1021	358
1070	55
1214	293
1189	279
1298	394
1480	0
1441	0
1402	73
1009	0
1277	382
1447	154
1059	371
1492	0
1319	0
1429	15
1560	183
1188	278
1405	314
1448	0
1686	0
1098	0
1562	184
1531	166
1280	0
1015	0
1407	0
1150	0
1536	0
1205	32
1259	45
1698	80
1000	225
1288	391
1329	0
1364	0
1075	251
1213	292
1584	196
1141	52
1624	0
1078	252
1487	350
1270	90
1233	0
1741	0
1328	97
1353	0
1453	0
1375	298
1367	116
1450	0
1225	38
1681	0
1256	44
1421	141
1161	0
1331	0
1142	0
1430	147
1521	159
1622	330
1654	0
1094	0
1363	0
1696	0
1014	232
1679	0
1358	112
1589	33
1201	63
1033	0
1408	315
1166	54
1391	307
1206	64
1028	360
1474	344
1570	189
1524	25
1360	113
1046	0
1535	0
1422	142
1650	0
1240	0
1058	0
1283	387
1723	0
1030	361
1156	0
1370	0
1718	0
1519	357
1672	338
1517	355
1118	0
1091	0
1469	0
1011	48
1468	24
1238	0
1221	206
1598	205
1254	43
1452	0
1250	218
1160	0
1680	0
1594	0
1512	0
1284	388
1260	0
1417	0
1137	51
1444	20
1495	0
1321	93
1575	0
1432	149
1691	0
1157	0
1257	221
1286	389
1125	237
1110	0
1431	148
1659	0
1673	79
1748	0
1537	0
1737	0
1372	295
1275	380
1302	0
1322	94
1658	0
1244	0
1684	0
1342	0
1095	258
1082	0
1514	0
1374	297
1435	150
1327	2
1548	175
1048	0
1625	331
1122	235
1263	222
1398	313
1102	260
1423	13
1667	0
1035	362
1393	0
1152	0
1567	0
1099	259
1140	0
1406	0
1199	62
1172	0
1661	336
1738	137
1007	230
1330	98
1520	158
1591	202
1708	123
1541	170
1006	229
1084	0
1484	0
1564	185
1267	224
1086	0
1414	319
1481	348
1628	0
1545	173
1687	0
1582	195
1588	200
1289	91
1271	376
1646	0
1419	0
1540	169
1027	0
1175	0
1237	213
1350	0
1740	0
1490	0
1576	30
1324	95
1728	11
1565	0
1036	0
1130	240
1525	161
1571	190
1592	203
1312	402
1376	299
1335	102
1577	0
1635	0
