1410	293
1464	0
1356	0
1186	253
1416	297
1087	230
1032	0
1399	51
1722	108
1519	333
1078	228
1117	243
1384	0
1004	203
1112	240
1735	112
1067	0
1525	137
1517	331
1382	0
1335	78
1141	38
1703	96
1362	90
1595	180
1488	327
1372	271
1521	135
1326	0
1610	0
1429	9
1369	0
1508	0
1185	0
1511	0
1692	0
1404	0
1025	0
1580	0
1455	0
1163	0
1745	0
1228	184
1304	373
1285	0
1709	100
1316	0
1101	43
1601	0
1290	0
1566	162
1263	198
1272	353
1612	0
1262	0
1044	63
1564	161
1361	0
1675	0
1211	0
1315	0
1237	189
1275	356
1465	0
1294	68
1328	73
1730	110
1685	0
1676	0
1397	288
1147	0
1528	140
1615	0
1634	0
1603	299
1430	123
1708	99
1176	246
1598	181
1539	0
1663	0
1245	0
1306	375
1489	0
1023	335
1583	0
1699	317
1170	0
1387	49
1177	0
1307	0
1026	0
1475	321
1196	260
1107	0
1068	350
1008	0
1439	128
1339	0
1127	214
1011	35
1542	147
1645	0
1230	185
1749	0
1267	200
1040	0
1254	30
1075	227
1213	268
1398	289
1016	0
1600	0
1298	370
1561	0
1057	66
1507	329
1317	0
1119	0
1643	0
1229	0
1742	0
1224	0
1181	250
1499	0
1167	0
1728	0
1367	92
1051	64
1034	0
1607	0
1531	142
1695	316
1217	0
1232	186
1129	0
1343	0
1585	173
1130	216
1547	0
1192	257
1012	0
1231	0
1682	0
1124	0
1197	261
1079	0
1472	0
1549	152
1259	32
1736	0
1701	94
1311	377
1049	344
1671	0
1162	0
1093	233
1154	0
1620	55
1266	199
1588	176
1099	235
1171	0
1021	334
1134	218
1300	371
1165	0
1323	1
1558	158
1573	168
1504	0
1210	0
1235	0
1357	87
1191	0
1291	0
1726	6
1725	0
1028	336
1325	72
1454	0
1637	0
1581	170
1617	303
1704	97
1168	0
1234	187
1627	0
1711	101
1070	40
1604	0
1652	0
1493	0
1733	0
1729	109
1456	131
1225	27
1546	150
1080	0
1502	0
1187	0
1459	132
1055	65
1373	272
1178	247
1203	264
1392	284
1035	338
1330	74
1284	364
1666	0
1622	306
1440	0
1371	0
1064	0
1182	251
1014	208
1195	259
1069	351
1346	4
1383	280
1746	0
1379	278
1569	164
1660	0
1656	0
1131	0
1538	144
1602	298
1597	0
1702	95
1085	229
1388	281
1271	352
1024	62
1516	0
1545	149
1391	283
1247	0
1424	119
1698	0
1052	0
1338	2
1360	89
1296	0
1449	0
1670	0
1677	0
1206	46
1252	195
1114	0
1664	0
1313	0
1396	287
1669	0
1269	0
1648	0
1227	0
1088	41
1173	244
1513	0
1458	0
1337	0
1283	363
1744	115
1413	0
1518	332
1420	116
1045	342
1301	0
1358	88
1241	191
1609	300
1222	26
1690	0
1724	0
1526	138
1672	314
1378	277
1498	0
1477	59
1287	366
1207	266
1020	0
1422	118
1017	209
1018	210
1732	0
1486	325
1522	0
1738	113
1277	358
1496	328
1282	362
1214	269
1002	202
1712	102
1629	0
1461	0
1631	0
1053	0
1109	239
1039	0
1030	337
1662	0
1019	36
1264	33
1427	121
1365	91
1180	249
1122	211
1359	0
1145	0
1149	0
1402	53
1348	84
1572	167
1202	263
1550	0
1200	0
1500	0
1414	295
1003	0
1265	0
1438	12
1647	0
1037	0
1665	313
1651	0
1309	0
1321	69
1529	141
1243	193
1188	254
1062	0
1005	204
1340	80
1710	0
1001	0
1303	372
1031	0
1523	136
1551	0
1333	76
1494	0
1174	245
1164	0
1606	0
1332	75
1158	222
1073	225
1649	0
1219	0
1418	0
1482	0
1668	0
1421	117
1115	42
1060	0
1541	146
1590	177
1236	188
1554	155
1148	0
1198	262
1697	0
1143	0
1061	0
1169	0
1446	0
1509	0
1352	0
1743	0
1505	0
1556	20
1560	159
1574	0
1289	17
1626	0
1694	0
1562	160
1261	0
1381	0
1097	0
1719	107
1063	348
1707	0
1608	0
1105	0
1411	0
1138	0
1641	0
1483	0
1216	0
1286	365
1657	0
1443	13
1113	241
1295	0
1226	0
1310	0
1144	0
1081	0
1552	153
1102	236
1401	0
1587	175
1083	0
1066	0
1274	355
1423	0
1737	7
1563	0
1013	0
1151	0
1625	307
1632	0
1125	213
1394	285
1553	154
1576	21
1077	0
1320	0
1288	367
1111	0
1314	0
1047	343
1297	369
1096	0
1354	0
1639	0
1006	205
1497	0
1621	305
1376	275
1510	0
1194	0
1220	25
1593	24
1193	258
1120	0
1205	0
1327	0
1038	0
1605	50
1179	248
1533	143
1212	0
1428	122
1403	0
1534	0
1412	294
1700	93
1688	0
1299	0
1126	0
1366	0
1223	183
1029	0
1385	48
1249	0
1250	194
1246	0
1487	326
1132	0
1727	0
1457	15
1613	0
1693	0
1258	0
1555	156
1204	265
1347	83
1389	282
1153	220
1721	5
1074	226
1136	0
1485	0
1351	0
1734	0
1133	217
1460	0
1189	255
1462	0
1720	0
1524	17
1256	31
1633	309
1293	0
1674	0
1201	45
1586	174
1589	23
1221	182
1435	126
1716	0
1139	0
1386	0
1159	0
1183	252
1100	42
1470	58
1349	85
1445	129
1380	279
1451	0
1599	0
1279	360
1116	242
1683	0
1137	37
1520	134
1623	0
1007	206
1747	0
1089	0
1642	0
1506	0
1444	14
1706	98
1473	319
1400	52
1714	104
1123	212
1095	234
1312	378
1543	0
1248	28
1251	29
1106	0
1655	0
1442	0
1501	0
1689	0
1166	39
1128	215
1503	0
1640	0
1268	34
1568	163
1433	0
1409	292
1491	0
1390	50
1653	311
1121	0
1559	0
1591	178
1584	172
1010	207
1636	310
1334	77
1043	341
1022	61
1345	3
1480	0
1441	0
1009	0
1717	106
1104	237
1054	0
1579	169
1492	0
1319	0
1336	79
1638	56
1071	223
1415	296
1611	301
1661	312
1448	0
1686	0
1098	0
1715	105
1731	111
1630	308
1673	57
1239	190
1619	304
1041	339
1280	0
1015	0
1146	0
1407	0
1582	171
1150	0
1515	330
1578	22
1536	0
1408	291
1705	3
1463	16
1739	114
1270	67
1329	0
1364	0
1624	0
1405	290
1557	157
1103	0
1616	302
1209	0
1233	0
1741	0
1072	224
1353	0
1000	201
1453	0
1431	124
1450	0
1050	345
1681	0
1161	0
1331	0
1092	232
1142	0
1474	320
1618	0
1479	60
1654	0
1094	0
1713	103
1363	0
1696	0
1679	0
1324	71
1678	315
1571	166
1532	19
1447	130
1033	0
1425	8
1257	197
1540	145
1076	0
1305	374
1046	0
1535	0
1650	0
1471	318
1240	0
1058	0
1723	0
1478	323
1156	0
1370	0
1718	0
1341	81
1090	231
1374	273
1059	347
1118	0
1091	0
1469	0
1544	148
1056	346
1238	0
1644	0
1452	0
1160	0
1680	0
1208	267
1614	54
1594	0
1512	0
1199	0
1260	0
1375	274
1417	0
1530	18
1495	0
1436	11
1042	340
1292	368
1575	0
1691	0
1157	0
1468	0
1110	0
1308	376
1368	0
1659	0
1527	139
1322	70
1377	276
1276	357
1273	354
1748	0
1184	44
1537	0
1302	0
1548	151
1481	324
1658	0
1190	256
1244	0
1684	0
1342	0
1278	359
1082	0
1514	0
1155	221
1596	0
1065	349
1318	379
1437	127
1048	0
1592	179
1467	133
1667	0
1434	10
1393	0
1152	0
1567	0
1140	0
1406	0
1172	0
1395	286
1426	120
1215	47
1253	0
1084	0
1484	0
1086	0
1432	125
1628	0
1570	165
1687	0
1135	219
1344	82
1476	322
1646	0
1108	238
1419	0
1027	0
1175	0
1466	0
1242	192
1350	0
1740	0
1490	0
1565	0
1036	0
1255	196
1281	361
1218	270
1577	0
1355	86
1635	0
