1098
1736
1491
1336
1228
1334
1733
1101
1421
1478
1566
1259
1171
1686
1069
1011
1641
1473
1482
1169
1230
1617
1507
1058
1690
1745
1229
1049
1032
1015
1500
1141
1379
1142
1373
1503
1677
1730
1034
1138
1466
1484
1109
1162
1275
1200
1643
1553
1147
1607
1662
1287
1360
1047
1233
1180
1399
1533
1740
1090
1067
1146
1128
1167
1331
1176
1683
1163
1025
1680
1505
1524
1392
1493
1603
1558
1485
1330
1630
1003
1486
1647
1194
1094
1386
1401
1395
1056
1414
1483
1714
1148
1187
1158
1028
1236
1604
1634
1549
1062
1284
1247
1320
1743
1297
1625
1340
1628
1682
1189
1106
1514
1575
1052
1461
1048
1211
1697
1283
1457
1218
1310
1246
1528
1249
1190
1577
1665
1409
1093
1724
1455
1517
1222
1317
1296
1325
1737
1691
1002
1377
1378
1225
1084
1444
1057
1368
1208
1309
1531
1240
1107
1635
1361
1559
1196
1201
1629
1329
1585
1592
1515
1265
1068
1367
1021
1343
1254
1020
1551
1518
1667
1621
1676
1076
1352
1672
1055
1303
1250
1422
1654
1718
1696
1145
1656
1512
1083
1363
1257
1615
1285
1394
1437
1170
1498
1663
1311
1441
1105
1269
1582
1664
1574
1649
1029
1489
1644
1571
1416
1027
1447
1703
1074
1066
1432
1426
1702
1695
1183
1408
1376
1108
1018
1305
1423
1220
1490
1725
1715
1544
1010
1689
1467
1631
1397
1516
1151
1594
1420
1044
1726
1590
1075
1327
1407
1301
1597
1017
1129
1709
1406
1731
1345
1454
1723
1022
1087
1288
1289
1097
1335
1529
1369
1428
1071
1219
1227
1104
1412
1279
1452
1611
1568
1204
1735
1463
1126
1139
1007
1749
1385
1476
1384
1570
1119
1545
1646
1253
1560
1602
1192
1658
1035
1244
1045
1238
1671
1700
1006
1472
1651
1536
1572
1209
1124
1708
1161
1402
1511
1624
1699
1381
1264
1131
1513
1313
1655
1438
1627
1245
1374
1063
1004
1495
1362
1307
1198
1278
1732
1178
1692
1722
1636
1070
1372
1727
1565
1193
1525
1186
1251
1346
1118
1033
1172
1380
1675
1061
1040
1417
1669
1112
1685
1580
1521
1054
1548
1578
1338
1241
1117
1184
1639
1562
1605
1298
1191
1506
1252
1156
1092
1306
1616
1479
1295
1282
1684
1550
1388
1231
1546
1480
1023
1450
1520
1111
1319
1175
1339
1239
1168
1144
1212
1341
1095
1487
1321
1564
1042
1433
1177
1039
1527
1618
1613
1504
1357
1744
1593
1293
1542
1398
1217
1606
1256
1440
1312
1453
1188
1113
1150
1456
1477
1316
1638
1586
1519
1619
1458
1526
1000
1358
1059
1262
1349
1127
1674
1031
1557
1449
1077
1622
1425
1418
1060
1387
1120
1729
1681
1573
1215
1587
1359
1072
1612
1711
1102
1657
1290
1324
1556
1460
1539
1185
1501
1555
1137
1024
1642
1434
1747
1268
1382
1462
1583
1488
1043
1637
1026
1522
1195
1694
1538
1065
1332
1645
1012
1273
1337
1411
1348
1404
1721
1016
1508
1276
1207
1707
1623
1255
1393
1159
1116
1698
1153
1080
1242
1079
1660
1739
1005
1494
1286
1464
1051
1742
1318
1221
1258
1481
1720
1001
1554
1036
1081
1419
1157
1567
1596
1213
1132
1523
1182
1383
1687
1579
1471
1673
1365
1427
1543
1588
1584
1451
1648
1746
1243
1143
1174
1199
1234
1405
1661
1391
1202
1598
1534
1569
1552
1701
1115
1678
1415
1096
1216
1370
1547
1261
1134
1670
1281
1734
1140
1704
1328
1323
1591
1291
1271
1581
1110
1652
1666
1165
1038
1435
1086
1502
1620
1424
1430
1266
1267
1496
1053
1589
1315
1237
1088
1600
1308
1041
1717
1300
1448
1563
1135
1541
1154
1280
1019
1659
1164
1136
1294
1640
1232
1653
1510
1650
1633
1166
1082
1390
1719
1235
1205
1299
1149
1122
1389
1292
1400
1326
1688
1155
1152
1078
1443
1561
1474
1206
1263
1601
1302
1706
1314
1354
1410
1270
1342
1364
1103
1366
1712
1470
1197
1085
1260
1396
1705
1277
1530
1355
1738
1347
1446
1535
1668
1679
1459
1728
1532
1224
1272
1716
1179
1632
1371
1492
1064
1333
1008
1509
1130
1322
1748
1429
1226
1350
1223
1356
1089
1710
1099
1609
1431
1009
1210
1248
1037
1608
1465
1442
1030
1741
1693
1173
1304
1114
1436
1100
1540
1403
1274
1497
1353
1125
1537
1469
1181
1214
1160
1014
1121
1046
1599
1614
1073
1351
1123
1133
1576
1475
1610
1344
1468
1013
1413
1445
1595
1626
1375
1203
1439
1499
1050
1713
1091
