{
  "consumer_key": "4dOWDpjFyof9D29eE4dUdk8lS",
  "consumer_secret": "ozJVxVMXffXo2OfXRTd8macICs0ZDnyijPVXvBRotivm342Hkg",
  "bearer_token": "AAAAAAAAAAAAAAAAAAAAACMuTwEAAAAAKagXSph8OoHH%2FzgLi96fWWIjfcE%3DXMoyrqjZP02jIeGzxXPWbcBPXfTjHjsRyaLVfFtQiqIKguHiqg",
  "access_token": "68199818-V8ACvxHT3qMksU0NkiwdewzyhK2kkNi8LcquLWxoK",
  "access_token_secret": "dRUeD9tdMC1y6HOh3DNIUTRDaxevWPerkbvEdpJkq1A3r"
}
