{
  "provax": [
    "FullyVaccinated",
    "GetTheVax",
    "GetVaccinatedASAP",
    "VaccineReady",
    "VaxUpIL",
    "TeamVaccine",
    "GetTheJab",
    "VaccinesSaveLives",
    "RollUpYourSleeve",
    "DontMissYourVaccine",
    "letsgetvaccinated",
    "TakeTheVaccine",
    "takethevaccine",
    "COVIDIDIOTS",
    "SafeVaccines",
    "ThisIsOurShotCA",
    "LetsGetVaccinated",
    "getthevaccine",
    "PandemicOfTheUnvaccinated",
    "VaccineStrategy",
    "igottheshot",
    "vaccinationdone",
    "ThisIsOurShot",
    "VaccinateNiagara",
    "TwoDoseSummer",
    "OurVaccineOurPride",
    "IGotMyShot",
    "FreeVaccineForAll",
    "VaccineEquity",
    "COVIDIOTS",
    "GetTheVaccine",
    "GetVaxxed",
    "VaccineJustice",
    "getthejab",
    "VaccineForAll",
    "covidiot",
    "gettheshot",
    "RollUpYourSleevesMN",
    "GoVAXMaryland",
    "WorldImmunizationWeek",
    "VaccinesWork",
    "getvaccinated",
    "GetVaccinatedNow",
    "VaxUp",
    "PlanYourVaccine",
    "VaccinateEveryIndian",
    "TakeYourShot",
    "Vaccines4All",
    "VaccinnateWithConfidence",
    "firstdose",
    "YesToCOVID19Vaccine",
    "NYCVaccineForAll",
    "Vaccine4All",
    "getvaxxed",
    "VaccinEquity",
    "GetVaccinated"
  ],
  "antivax": [
		"abolishbigpharma",
		"noforcedflushots",
		"NoForcedVaccines",
		"ArrestBillGates",
		"notomandatoryvaccines",
		"betweenmeandmydoctor",
		"NoVaccine",
		"bigpharmafia",
		"NoVaccineForMe",
		"bigpharmakills",
		"novaccinemandates",
		"BillGatesBioTerrorist",
		"parentalrights",
		"billgatesevil",
		"parentsoverpharma",
		"BillGatesIsEvil",
		"saynotovaccines",
		"billgatesisnotadoctor",
		"stopmandatoryvaccination",
		"billgatesvaccine",
		"cdcfraud",
		"cdctruth",
		"v4vglobaldemo",
		"cdcwhistleblower",
		"vaccinationchoice",
		"covidvaccineispoison",
		"VaccineAgenda",
		"depopulation",
		"vaccinedamage",
		"DoctorsSpeakUp",
		"vaccinefailure",
		"educateb4uvax",
		"vaccinefraud",
		"exposebillgates",
		"vaccineharm",
		"forcedvaccines",
		"vaccineinjuries",
		"Fuckvaccines",
		"vaccineinjury",
		"idonotconsent",
		"VaccinesAreNotTheAnswer",
		"informedconsent",
		"vaccinesarepoison",
		"learntherisk",
		"vaccinescause",
		"medicalfreedom",
		"vaccineskill",
		"medicalfreedomofchoice",
		"momsofunvaccinatedchildren",
		"mybodymychoice"
  ]
}
