{
	 "GovDistrust": ["lack of trust in the government"],
	 "GovTrust": ["we trust the government"],
   "BigPharmaAnti": ["the vaccine was created only for the profit of pharmaceutical companies"],
   "BigPharmaPro": ["I trust pharmaceutical companies"],
	 "VaccineDanger": ["the vaccine will be dangerous to health"],
   "VaccineSafe": ["vaccine saves lives"],
	 "VaccineOppression": ["I do not want to be vaccinated because I have freedom of choice"],
   "VaccineNotOppression": ["the vaccine mandate is not oppression"],
	 "vaccineAgainstReligion": ["the vaccine is against my religion"],
   "vaccineNotAgainstRelition": ["vaccine is not against any religion"],
	 "CovidFake": ["COVID-19 disease does not exist"],
   "CovidReal": ["COVID-19 is real"],
	 "NaturalImmunityPro": ["natural methods of protection against the disease are better than vaccines"],
   "NaturalImmunityAnti": ["natural immunity will not end the pandemic"],
	 "vaccineDoesntWork": ["the vaccine does not work"],
   "vaccineWorks": ["the vaccine works"],
	 "VaccineNotTested": ["the vaccine is not properly tested, it has been developed too quickly"],
   "VaccineTested": ["the vaccine was developed following standard protocols and was FDA approved"]
}
