{
    "models": [
        {
          "model": "BertClassifier",
          "module": "bert_classifier_input",
          "learning_rate": 2e-5,
          "batch_size": 32,
          "pred_size": 16,
          "use_gpu": true,
          "patience": 5,
          "weighted_examples": true,
          "measurement": "f1",
          "average": "macro",
          "bert_model": "bert-base-uncased",
          "n_features": 24
        }
    ]
}

